…
    ## Warning: 762 parsing failures.
    ## row col  expected    actual                                                          file
    ##   1  -- 7 columns 8 columns 'https://gml.noaa.gov/webdata/ccgg/trends/co2/co2_mm_mlo.txt'
    ##   2  -- 7 columns 8 columns 'https://gml.noaa.gov/webdata/ccgg/trends/co2/co2_mm_mlo.txt'
    ##   3  -- 7 columns 8 columns 'https://gml.noaa.gov/webdata/ccgg/trends/co2/co2_mm_mlo.txt'
    ##   4  -- 7 columns 8 columns 'https://gml.noaa.gov/webdata/ccgg/trends/co2/co2_mm_mlo.txt'
    ##   5  -- 7 columns 8 columns 'https://gml.noaa.gov/webdata/ccgg/trends/co2/co2_mm_mlo.txt'
    ## ... ... ......... ......... .............................................................
    ## See problems(...) for more details.

``` r
co2
```

    ## # A tibble: 762 × 7
    ##     year month decimal_date average interpolated trend  days
    ##    <dbl> <dbl>        <dbl>   <dbl>        <dbl> <dbl> <dbl>
    ##  1  1958     3        1958.    316.         314.    NA -9.99
    ##  2  1958     4        1958.    317.         315.    NA -9.99
    ##  3  1958     5        1958.    318.         315.    NA -9.99
    ##  4  1958     6        1958.    317.         315.    NA -9.99
    ##  5  1958     7        1959.    316.         315.    NA -9.99
    ##  6  1958     8        1959.    315.         316.    NA -9.99
    ##  7  1958     9        1959.    313.         316.    NA -9.99
    ##  8  1958    10        1959.    312.         315.    NA -9.99
    ##  9  1958    11        1959.    313.         315.    NA -9.99
    ## 10  1958    12        1959.    315.         315.    NA -9.99
    ## # … with 752 more rows
…
    ## 
    ## ── Column specification ────────────────────────────────────────────────────────
    ## cols(
    ##   year = col_double(),
    ##   no_smoothing = col_double(),
    ##   lowess = col_double()
    ## )

``` r
globaltemp
```

    ## # A tibble: 141 × 3
    ##     year no_smoothing lowess
    ##    <dbl>        <dbl>  <dbl>
    ##  1  1880        -0.16  -0.08
    ##  2  1881        -0.08  -0.12
    ##  3  1882        -0.1   -0.16
    ##  4  1883        -0.16  -0.2 
    ##  5  1884        -0.28  -0.23
    ##  6  1885        -0.33  -0.26
    ##  7  1886        -0.31  -0.27
    ##  8  1887        -0.36  -0.27
    ##  9  1888        -0.17  -0.26
    ## 10  1889        -0.1   -0.25
    ## # … with 131 more rows
…
    ## Rows: 140 Columns: 3

    ## ── Column specification ────────────────────────────────────────────────────────
    ## Delimiter: ","
    ## dbl (3): Year.decimal, Greenland, Antarctica

    ## 
    ## ℹ Use `spec()` to retrieve the full column specification for this data.
    ## ℹ Specify the column types or set `show_col_types = FALSE` to quiet this message.

``` r
ice_sheets
```

    ## # A tibble: 140 × 3
    ##    Year.decimal Greenland Antarctica
    ##           <dbl>     <dbl>      <dbl>
    ##  1        2002.     1491.       967.
    ##  2        2002.     1486.       979.
    ##  3        2003.     1287.       512.
    ##  4        2003.     1258.       859.
    ##  5        2003.     1257.       694.
    ##  6        2003.     1288.       592.
    ##  7        2003.     1337.       658.
    ##  8        2003.     1354.       477.
    ##  9        2003.     1363.       546.
    ## 10        2003.     1427.       494.
    ## # … with 130 more rows
…
    ## Warning: 847 parsing failures.
    ## row col   expected     actual                                                                                                    file
    ##   1  -- 11 columns 12 columns 'http://climate.nasa.gov/system/internal_resources/details/original/121_Global_Sea_Level_Data_File.txt'
    ##   2  -- 11 columns 12 columns 'http://climate.nasa.gov/system/internal_resources/details/original/121_Global_Sea_Level_Data_File.txt'
    ##   3  -- 11 columns 12 columns 'http://climate.nasa.gov/system/internal_resources/details/original/121_Global_Sea_Level_Data_File.txt'
    ##   4  -- 11 columns 12 columns 'http://climate.nasa.gov/system/internal_resources/details/original/121_Global_Sea_Level_Data_File.txt'
    ##   5  -- 11 columns 12 columns 'http://climate.nasa.gov/system/internal_resources/details/original/121_Global_Sea_Level_Data_File.txt'
    ## ... ... .......... .......... .......................................................................................................
    ## See problems(...) for more details.

``` r
sea_levels
```

    ## # A tibble: 847 × 11
    ##    `altimeter type (… `merged file cyc…  year `number of obse… `number of weigh…
    ##                 <dbl>             <dbl> <dbl>            <dbl>             <dbl>
    ##  1                  0                11 1993.           463892           336485.
    ##  2                  0                12 1993.           458154           333208.
    ##  3                  0                13 1993.           469524           341593.
    ##  4                  0                14 1993.           419112           305335.
    ##  5                  0                15 1993.           456793           330244.
    ##  6                  0                16 1993.           414055           299600.
    ##  7                  0                17 1993.           465235           336243.
    ##  8                  0                18 1993.           463257           334575.
    ##  9                  0                19 1993.           458542           330751.
    ## 10                999                20 1993.           464921           339267.
    ## # … with 837 more rows, and 6 more variables: GMSL <dbl>,
    ## #   Standard deviation of GMSL <dbl>, GMSL (GIA applied) <dbl>,
    ## #   standard deviation of GMSL (GIA applied) <dbl>,
    ## #   Smoothed GMSL GIA applied variation <dbl>,
    ## #   Smoothed GMSL GIA applied variation (annual, semiannual signal removed) <dbl>
…
    ## 
    ## ℹ Use `spec()` to retrieve the full column specification for this data.
    ## ℹ Specify the column types or set `show_col_types = FALSE` to quiet this message.

``` r
sea_ice <- sea_ice %>% 
  mutate(Date = as.Date(paste(Year, Month, Day, sep = "-"))) %>%
  select(Date, Year, Month, Day, Extent, Missing)
sea_ice
```

    ## # A tibble: 14,023 × 6
    ##    Date        Year Month Day   Extent Missing
    ##    <date>     <dbl> <chr> <chr>  <dbl>   <dbl>
    ##  1 1978-10-26  1978 10    26      10.2       0
    ##  2 1978-10-28  1978 10    28      10.4       0
    ##  3 1978-10-30  1978 10    30      10.6       0
    ##  4 1978-11-01  1978 11    01      10.7       0
    ##  5 1978-11-03  1978 11    03      10.8       0
    ##  6 1978-11-05  1978 11    05      11.0       0
    ##  7 1978-11-07  1978 11    07      11.1       0
    ##  8 1978-11-09  1978 11    09      11.2       0
    ##  9 1978-11-11  1978 11    11      11.3       0
    ## 10 1978-11-13  1978 11    13      11.5       0
    ## # … with 14,013 more rows
…
